Define Vegetarians
…
times<-new%>%select(times_taken_24HR, SpecialTimesVeg)%>%
    filter(complete.cases(.), SpecialTimesVeg>0)
sapply(times, table)

##      times_taken_24HR SpecialTimesVeg
## 1                2539            4152
## 2                1876            1789
## 3                1973            1340
## 4                1547             848
## 5                 346             152
## <NA>                0               0

times%>%filter(times_taken_24HR>=2, SpecialTimesVeg>=2)

## # A tibble: 4,129 × 2
##    times_taken_24HR SpecialTimesVeg
##               <dbl>           <dbl>
##  1                2               2
##  2                3               3
##  3                4               4
##  4                3               3
##  5                5               4
##  6                3               3
##  7                2               2
##  8                4               3
##  9                2               2
## 10                3               3
## # … with 4,119 more rows
…
colnames(Meatfish24)<-c("Meat0", "Meat1","Meat2",
                        "Meat3","Meat4",
                        "Fish0","Fish1","Fish2",
                        "Fish3","Fish4")

Meatfish24<-as_tibble(sapply(Meatfish24, 
                         mapvalues, c("No", "Yes"), c(0, 1)))
Meatfish24<-as_tibble(sapply(Meatfish24, as.numeric))
Meatfish24

## # A tibble: 502,527 × 10
##    Meat0 Meat1 Meat2 Meat3 Meat4 Fish0 Fish1 Fish2 Fish3 Fish4
##    <dbl> <dbl> <dbl> <dbl> <dbl> <dbl> <dbl> <dbl> <dbl> <dbl>
##  1    NA    NA    NA    NA    NA    NA    NA    NA    NA    NA
##  2    NA    NA    NA    NA    NA    NA    NA    NA    NA    NA
##  3     0    NA    NA    NA    NA     0    NA    NA    NA    NA
##  4    NA    NA    NA    NA    NA    NA    NA    NA    NA    NA
##  5    NA    NA    NA     1     1    NA    NA    NA     1     0
##  6    NA     0     1    NA     1    NA     0     0    NA     0
##  7    NA    NA     0    NA    NA    NA    NA     0    NA    NA
##  8    NA     1    NA     0    NA    NA     1    NA     1    NA
##  9    NA    NA    NA    NA    NA    NA    NA    NA    NA    NA
## 10    NA    NA    NA    NA     0    NA    NA    NA    NA     0
## # … with 502,517 more rows
…
ate=ate[16:35]
ate

## # A tibble: 502,527 × 20
##    vegAteMeatOnly0 vegAteMeatOnly1 vegAteMeatOnly2 vegAteMeatOnly3
##              <dbl>           <dbl>           <dbl>           <dbl>
##  1              NA              NA              NA              NA
##  2              NA              NA              NA              NA
##  3              NA              NA              NA              NA
##  4              NA              NA              NA              NA
##  5              NA              NA              NA              NA
##  6              NA              NA              NA              NA
##  7              NA              NA              NA              NA
##  8              NA              NA              NA              NA
##  9              NA              NA              NA              NA
## 10              NA              NA              NA              NA
## # … with 502,517 more rows, and 16 more variables: vegAteMeatOnly4 <dbl>,
## #   vegAteFishOnly0 <dbl>, vegAteFishOnly1 <dbl>, vegAteFishOnly2 <dbl>,
## #   vegAteFishOnly3 <dbl>, vegAteFishOnly4 <dbl>, vegAteMeatAndFish0 <dbl>,
## #   vegAteMeatAndFish1 <dbl>, vegAteMeatAndFish2 <dbl>,
## #   vegAteMeatAndFish3 <dbl>, vegAteMeatAndFish4 <dbl>, vegDidnt0 <dbl>,
## #   vegDidnt1 <dbl>, vegDidnt2 <dbl>, vegDidnt3 <dbl>, vegDidnt4 <dbl>
…
